﻿Address;USB0::0x0957::0x0E0B::MY51260562::0::INSTR
Model;N9000A
Serial Number:;MY51260562
Firmware Version;A.14.16
Start Time;2019-05-14 03:16:28.824
Time of Capture;2019-05-14 03:32:28.045
Total Samples per Trace: ;1001
Stop Frequency: ;800 MHz
Span: ;500 MHz
Center Frequency: ;550 MHz
Start Frequency: ;300 MHz
Sweep Time: ;1 ms
;
Frequency (Hz) ;Trace1 - [Max Hold] (dBm)
300000000;-0,911916613578796
300500000;-0,913071095943451
301000000;-0,92745441198349
301500000;-0,928608953952789
302000000;-0,930498361587524
302500000;-0,929448068141937
303000000;-0,928397715091705
303500000;-0,930287182331085
304000000;-0,924092292785645
304500000;-0,928921461105347
305000000;-0,92787116765976
305500000;-0,929025650024414
306000000;-0,928710281848907
306500000;-0,926925003528595
307000000;-0,926609635353088
307500000;-0,925559282302856
308000000;-0,929653525352478
308500000;-0,926398396492004
309000000;-0,927552938461304
309500000;-0,926502585411072
310000000;-0,929126977920532
310500000;-0,92734169960022
311000000;-0,95054429769516
311500000;-0,949494004249573
312000000;-0,951383411884308
312500000;-0,947393357753754
313000000;-0,949282765388489
313500000;-0,947497546672821
314000000;-0,952326714992523
314500000;-0,954216122627258
315000000;-0,950226068496704
315500000;-0,955055236816406
316000000;-0,954004943370819
316500000;-0,953689575195313
317000000;-0,958518743515015
317500000;-0,957468390464783
318000000;-0,956418097019196
318500000;-0,95757257938385
319000000;-0,954317450523376
319500000;-0,956206917762756
320000000;-0,957361400127411
320500000;-0,974684476852417
321000000;-0,976573944091797
321500000;-0,975523591041565
322000000;-0,979617834091187
322500000;-0,978567540645599
323000000;-0,981191873550415
323500000;-0,980141580104828
324000000;-0,984235823154449
324500000;-0,983920454978943
325000000;-0,985074937343597
325500000;-0,987699270248413
326000000;-0,984801888465881
326500000;-0,987783968448639
327000000;-0,984151601791382
327500000;-0,987133741378784
328000000;-0,990115821361542
328500000;-0,987953305244446
329000000;-0,990200459957123
329500000;-0,990977764129639
330000000;-0,993959844112396
330500000;-1,01384544372559
331000000;-1,01168298721313
331500000;-1,01466512680054
332000000;-1,01691222190857
332500000;-1,01768946647644
333000000;-1,02067160606384
333500000;-1,02365362644196
334000000;-1,02590084075928
334500000;-1,02888286113739
335000000;-1,03480470180511
335500000;-1,0385217666626
336000000;-1,04370868206024
336500000;-1,04448592662811
337000000;-1,04967284202576
337500000;-1,05265486240387
338000000;-1,05637192726135
338500000;-1,06229376792908
339000000;-1,06233608722687
339500000;-1,07046270370483
340000000;-1,07344484329224
340500000;-1,08010160923004
341000000;-1,10072219371796
341500000;-1,109583735466
342000000;-1,10962605476379
342500000;-1,11554789543152
343000000;-1,11779499053955
343500000;-1,12371683120728
344000000;-1,12669897079468
344500000;-1,1326208114624
345000000;-1,1363377571106
345500000;-1,139319896698
346000000;-1,14230191707611
346500000;-1,14234435558319
347000000;-1,14826607704163
347500000;-1,15345299243927
348000000;-1,15055561065674
348500000;-1,15647745132446
349000000;-1,15651977062225
349500000;-1,1543573141098
350000000;-1,15954422950745
350500000;-1,18016481399536
351000000;-1,18020713329315
351500000;-1,18024945259094
352000000;-1,18029177188873
352500000;-1,17812931537628
353000000;-1,17449700832367
353500000;-1,17527425289154
354000000;-1,17237687110901
354500000;-1,1724191904068
355000000;-1,16952180862427
355500000;-1,16588938236237
356000000;-1,16372692584991
356500000;-1,16082954406738
357000000;-1,16087186336517
357500000;-1,15429985523224
358000000;-1,15140235424042
358500000;-1,14850497245789
359000000;-1,14560759067535
359500000;-1,13977038860321
360000000;-1,13760793209076
360500000;-1,13397562503815
361000000;-1,14577698707581
361500000;-1,13993978500366
362000000;-1,1348375082016
362500000;-1,12900042533875
363000000;-1,12536811828613
363500000;-1,12247061729431
364000000;-1,1188383102417
364500000;-1,11373603343964
365000000;-1,10863387584686
365500000;-1,10573649406433
366000000;-1,09989929199219
366500000;-1,09994161128998
367000000;-1,09630930423737
367500000;-1,09414684772491
368000000;-1,10594820976257
368500000;-1,10525560379028
369000000;-1,10529792308807
369500000;-1,10019564628601
370000000;-1,0965633392334
370500000;-1,09734058380127
371000000;-1,09664797782898
371500000;-1,09669029712677
372000000;-1,09379291534424
372500000;-1,09163045883179
373000000;-1,09387767314911
373500000;-1,08877539634705
374000000;-1,09469723701477
374500000;-1,09179985523224
375000000;-1,10360109806061
375500000;-1,11246275901794
376000000;-1,11250507831573
376500000;-1,11842691898346
377000000;-1,11773431301117
377500000;-1,12071633338928
378000000;-1,12369847297668
378500000;-1,12741553783417
379000000;-1,12672293186188
379500000;-1,13043987751007
380000000;-1,12974727153778
380500000;-1,13346433639526
381000000;-1,1357114315033
381500000;-1,13648879528046
382000000;-1,13653111457825
382500000;-1,16303110122681
383000000;-1,16527831554413
383500000;-1,1623809337616
384000000;-1,16830277442932
384500000;-1,16834509372711
385000000;-1,17132711410522
385500000;-1,16842973232269
386000000;-1,17214679718018
386500000;-1,17365896701813
387000000;-1,17517113685608
387500000;-1,17521357536316
388000000;-1,17158114910126
388500000;-1,17529821395874
389000000;-1,17460560798645
389500000;-1,19522619247437
390000000;-1,19306373596191
390500000;-1,19016623497009
391000000;-1,19241344928741
391500000;-1,18731117248535
392000000;-1,18955838680267
392500000;-1,18739593029022
393000000;-1,1844984292984
393500000;-1,18674564361572
394000000;-1,18384826183319
394500000;-1,18168580532074
395000000;-1,17290890216827
395500000;-1,17515599727631
396000000;-1,17225861549377
396500000;-1,16936123371124
397000000;-1,16425895690918
397500000;-1,16356635093689
398000000;-1,15846419334412
398500000;-1,15189206600189
399000000;-1,15193438529968
399500000;-1,15197670459747
400000000;-1,14613962173462
400500000;-1,14618194103241
401000000;-1,13813996315002
401500000;-1,13818228244781
402000000;-1,13161015510559
402500000;-1,13165259361267
403000000;-1,12655031681061
403500000;-1,12365293502808
404000000;-1,12075555324554
404500000;-1,11785805225372
405000000;-1,1325991153717
405500000;-1,12988090515137
406000000;-1,13469111919403
406500000;-1,1248025894165
407000000;-1,12667298316956
407500000;-1,1285434961319
408000000;-1,12820911407471
408500000;-1,12934470176697
409000000;-1,12901031970978
409500000;-1,13088083267212
410000000;-1,12687170505524
410500000;-1,1280072927475
411000000;-1,12693798542023
411500000;-1,12954342365265
412000000;-1,1277391910553
412500000;-1,12740480899811
413000000;-1,14985346794128
413500000;-1,15098905563354
414000000;-1,1528594493866
414500000;-1,1525251865387
415000000;-1,15439558029175
415500000;-1,15332639217377
416000000;-1,15446186065674
416500000;-1,15339255332947
417000000;-1,15820276737213
417500000;-1,15713346004486
418000000;-1,15606427192688
418500000;-1,15866959095001
419000000;-1,16054010391235
419500000;-1,16167557239532
420000000;-1,17236530780792
420500000;-1,18085014820099
421000000;-1,18566036224365
421500000;-1,18459117412567
422000000;-1,18940126895905
422500000;-1,18833208084106
423000000;-1,18946754932404
423500000;-1,19354283809662
424000000;-1,19100368022919
424500000;-1,19287419319153
425000000;-1,19694936275482
425500000;-1,19367527961731
426000000;-1,20142531394958
426500000;-1,20623552799225
427000000;-1,20222640037537
427500000;-1,20409691333771
428000000;-1,20523250102997
428500000;-1,20195829868317
429000000;-1,20603358745575
429500000;-1,20863902568817
430000000;-1,21271431446075
430500000;-1,20944023132324
431000000;-1,23409366607666
431500000;-1,23302435874939
432000000;-1,23562979698181
432500000;-1,23676538467407
433000000;-1,2393707036972
433500000;-1,23830139636993
434000000;-1,23943698406219
434500000;-1,24204242229462
435000000;-1,24317789077759
435500000;-1,24578332901001
436000000;-1,24765372276306
436500000;-1,2495242357254
437000000;-1,25139462947845
437500000;-1,24665069580078
438000000;-1,2492561340332
438500000;-1,25627112388611
439000000;-1,25814163684845
439500000;-1,25707232952118
440000000;-1,25673794746399
440500000;-1,27845168113708
441000000;-1,27811741828918
441500000;-1,27925288677216
442000000;-1,28185832500458
442500000;-1,28005409240723
443000000;-1,27898478507996
443500000;-1,27865040302277
444000000;-1,28346061706543
444500000;-1,27871668338776
445000000;-1,2842618227005
445500000;-1,28025281429291
446000000;-1,28432810306549
446500000;-1,28105401992798
447000000;-1,27630996704102
447500000;-1,27524065971375
448000000;-1,27417147159576
448500000;-1,27089738845825
449000000;-1,27203285694122
449500000;-1,26581907272339
450000000;-1,26474976539612
450500000;-1,2688250541687
451000000;-1,27657496929169
451500000;-1,27330088615417
452000000;-1,27076172828674
452500000;-1,26748764514923
453000000;-1,26347863674164
453500000;-1,25726473331451
454000000;-1,25546050071716
454500000;-1,25218641757965
455000000;-1,24817740917206
455500000;-1,24343347549438
456000000;-1,23648464679718
456500000;-1,23615026473999
457000000;-1,22846662998199
457500000;-1,22519254684448
458000000;-1,22706294059753
458500000;-1,23407793045044
459000000;-1,23080384731293
459500000;-1,22899973392487
460000000;-1,22278583049774
460500000;-1,21804189682007
461000000;-1,21476781368256
461500000;-1,21296358108521
462000000;-1,20895457267761
462500000;-1,20788526535034
463000000;-1,20167136192322
463500000;-1,20280694961548
464000000;-1,20247256755829
464500000;-1,20140326023102
465000000;-1,19665932655334
465500000;-1,19632494449615
466000000;-1,21215927600861
466500000;-1,21108996868134
467000000;-1,21002066135406
467500000;-1,20674657821655
468000000;-1,21082186698914
468500000;-1,20754778385162
469000000;-1,20574355125427
469500000;-1,20834898948669
470000000;-1,20948445796967
470500000;-1,21135497093201
471000000;-1,21102058887482
471500000;-1,2150958776474
472000000;-1,21696627140045
472500000;-1,21589696407318
473000000;-1,22070717811584
473500000;-1,23507165908813
474000000;-1,2398818731308
474500000;-1,24175226688385
475000000;-1,24656248092651
475500000;-1,24255347251892
476000000;-1,24148416519165
476500000;-1,24629437923431
477000000;-1,25110459327698
477500000;-1,25003528594971
478000000;-1,25411057472229
478500000;-1,2537761926651
479000000;-1,25564670562744
479500000;-1,25972199440002
480000000;-1,26232731342316
480500000;-1,2641978263855
481000000;-1,28003203868866
481500000;-1,28263747692108
482000000;-1,28156816959381
482500000;-1,28564345836639
483000000;-1,2816344499588
483500000;-1,28717958927155
484000000;-1,28611028194427
484500000;-1,29018557071686
485000000;-1,28397178649902
485500000;-1,2887818813324
486000000;-1,2847728729248
486500000;-1,28664338588715
487000000;-1,28483915328979
487500000;-1,28156507015228
488000000;-1,28049576282501
488500000;-1,27575182914734
489000000;-1,29599571228027
489500000;-1,29125165939331
490000000;-1,29091739654541
490500000;-1,29205286502838
491000000;-1,28804385662079
491500000;-1,28183007240295
492000000;-1,28370046615601
492500000;-1,27969145774841
493000000;-1,27788722515106
493500000;-1,27387821674347
494000000;-1,27060413360596
494500000;-1,26879990100861
495000000;-1,26552581787109
495500000;-1,26739621162415
496000000;-1,27735102176666
496500000;-1,27701663970947
497000000;-1,27521240711212
497500000;-1,27487814426422
498000000;-1,26792931556702
498500000;-1,26686000823975
499000000;-1,2650557756424
499500000;-1,26398658752441
500000000;-1,2607125043869
500500000;-1,2647876739502
501000000;-1,26151359081268
501500000;-1,25970935821533
502000000;-1,264519572258
502500000;-1,26345038414001
503000000;-1,25944125652313
503500000;-1,26719129085541
504000000;-1,26612198352814
504500000;-1,25990808010101
505000000;-1,26765811443329
505500000;-1,26952850818634
506000000;-1,274338722229
506500000;-1,27253448963165
507000000;-1,27543604373932
507500000;-1,27348923683167
508000000;-1,27521705627441
508500000;-1,27547490596771
509000000;-1,27720272541046
509500000;-1,27819561958313
510000000;-1,28139328956604
510500000;-1,28312110900879
511000000;-1,30101752281189
511500000;-1,30201041698456
512000000;-1,30667793750763
512500000;-1,30987560749054
513000000;-1,3079286813736
513500000;-1,31259632110596
514000000;-1,31285417079926
514500000;-1,32046151161194
515000000;-1,32439410686493
515500000;-1,33347129821777
516000000;-1,33446419239044
516500000;-1,33913171291351
517000000;-1,34232938289642
517500000;-1,34626197814941
518000000;-1,36783313751221
518500000;-1,36882603168488
519000000;-1,37937307357788
519500000;-1,37963092327118
520000000;-1,38429856300354
520500000;-1,38749623298645
521000000;-1,39142882823944
521500000;-1,39467918872833
522000000;-1,40092217922211
522500000;-1,39981579780579
523000000;-1,40091419219971
523500000;-1,40201258659363
524000000;-1,40017116069794
524500000;-1,39759492874146
525000000;-1,39869332313538
525500000;-1,4034663438797
526000000;-1,42146837711334
526500000;-1,42036187648773
527000000;-1,42072534561157
527500000;-1,42255866527557
528000000;-1,42071735858917
528500000;-1,42475545406342
529000000;-1,42217922210693
529500000;-1,42107272148132
530000000;-1,42217111587524
530500000;-1,42253458499908
531000000;-1,42657279968262
531500000;-1,4217916727066
532000000;-1,41774547100067
532500000;-1,41884386539459
533000000;-1,41920733451843
533500000;-1,42692017555237
534000000;-1,42507886886597
534500000;-1,42544221878052
535000000;-1,42948043346405
535500000;-1,42543423175812
536000000;-1,42407190799713
536500000;-1,42024874687195
537000000;-1,41569077968597
537500000;-1,41186761856079
538000000;-1,40583968162537
538500000;-1,40422141551971
539000000;-1,4011332988739
539500000;-1,39951503276825
540000000;-1,39642679691315
540500000;-1,39260375499725
541000000;-1,41450345516205
541500000;-1,41068029403687
542000000;-1,40685713291168
542500000;-1,40891361236572
543000000;-1,40876519680023
543500000;-1,40788185596466
544000000;-1,40405869483948
544500000;-1,41125965118408
545000000;-1,40817153453827
545500000;-1,40949296951294
546000000;-1,41228425502777
546500000;-1,41066598892212
547000000;-1,40978264808655
547500000;-1,4155136346817
548000000;-1,41389536857605
548500000;-1,41374695301056
549000000;-1,41874313354492
549500000;-1,42079949378967
550000000;-1,42285585403442
550500000;-1,42197251319885
551000000;-1,44754683971405
551500000;-1,45548272132874
552000000;-1,45459938049316
552500000;-1,45592081546783
553000000;-1,46165192127228
553500000;-1,46297335624695
554000000;-1,46576476097107
554500000;-1,4648814201355
555000000;-1,47208225727081
555500000;-1,47487366199493
556000000;-1,47325539588928
556500000;-1,48192620277405
557000000;-1,4839825630188
557500000;-1,48603892326355
558000000;-1,48627114295959
558500000;-1,49458754062653
559000000;-1,49261486530304
559500000;-1,49505186080933
560000000;-1,49013936519623
560500000;-1,49919080734253
561000000;-1,51118195056915
561500000;-1,51655864715576
562000000;-1,51385104656219
562500000;-1,51408314704895
563000000;-1,51431524753571
563500000;-1,51454746723175
564000000;-1,51551449298859
564500000;-1,51501166820526
565000000;-1,51597881317139
565500000;-1,51621091365814
566000000;-1,5164430141449
566500000;-1,51888000965118
567000000;-1,5169073343277
567500000;-1,51713955402374
568000000;-1,51663672924042
568500000;-1,51760375499725
569000000;-1,5178359746933
569500000;-1,51439332962036
570000000;-1,51536047458649
570500000;-1,51853239536285
571000000;-1,53052341938019
571500000;-1,52781581878662
572000000;-1,53613233566284
572500000;-1,53415966033936
573000000;-1,53439176082611
573500000;-1,52874445915222
574000000;-1,53191637992859
574500000;-1,52920877933502
575000000;-1,53164565563202
575500000;-1,53187787532806
576000000;-1,52623045444489
576500000;-1,52352285385132
577000000;-1,52448999881744
577500000;-1,5247220993042
578000000;-1,52127957344055
578500000;-1,51857197284698
579000000;-1,51586437225342
579500000;-1,51389169692993
580000000;-1,51412379741669
580500000;-1,51435589790344
581000000;-1,5285519361496
581500000;-1,52584433555603
582000000;-1,52313673496246
582500000;-1,52336883544922
583000000;-1,51845645904541
583500000;-1,51868855953217
584000000;-1,51304113864899
584500000;-1,51547813415527
585000000;-1,51056575775146
585500000;-1,50197863578796
586000000;-1,50515055656433
586500000;-1,49876821041107
587000000;-1,49415123462677
587500000;-1,49688363075256
588000000;-1,49741125106812
588500000;-1,49573409557343
589000000;-1,49626159667969
589500000;-1,49384951591492
590000000;-1,49437713623047
590500000;-1,49490463733673
591000000;-1,51233577728271
591500000;-1,50771880149841
592000000;-1,51045119762421
592500000;-1,50509929656982
593000000;-1,50636184215546
593500000;-1,50321483612061
594000000;-1,49941658973694
594500000;-1,5067263841629
595000000;-1,5088917016983
595500000;-1,51473152637482
596000000;-1,51395702362061
596500000;-1,52200174331665
597000000;-1,52710676193237
597500000;-1,53221166133881
598000000;-1,53731667995453
598500000;-1,53948187828064
599000000;-1,54385185241699
599500000;-1,54601716995239
600000000;-1,5481823682785
600500000;-1,55034756660461
601000000;-1,57603073120117
601500000;-1,57819592952728
602000000;-1,57742142677307
602500000;-1,57958662509918
603000000;-1,58175194263458
603500000;-1,58685684204102
604000000;-1,58681726455688
604500000;-1,59192228317261
605000000;-1,5911477804184
605500000;-1,59625267982483
606000000;-1,59547817707062
606500000;-1,59984815120697
607000000;-1,59686887264252
607500000;-1,59829914569855
608000000;-1,60046434402466
608500000;-1,59454536437988
609000000;-1,59597563743591
609500000;-1,59299623966217
610000000;-1,61573970317841
610500000;-1,61496520042419
611000000;-1,61125087738037
611500000;-1,6126811504364
612000000;-1,60970187187195
612500000;-1,60819244384766
613000000;-1,60521304607391
613500000;-1,60737824440002
614000000;-1,60366404056549
614500000;-1,59921479225159
615000000;-1,59623551368713
615500000;-1,59252119064331
616000000;-1,59101176261902
616500000;-1,58141803741455
617000000;-1,58137845993042
617500000;-1,58060383796692
618000000;-1,5761547088623
618500000;-1,56950068473816
619000000;-1,56652128696442
619500000;-1,57971060276031
620000000;-1,57379150390625
620500000;-1,56934237480164
621000000;-1,56562805175781
621500000;-1,55970895290375
622000000;-1,55525982379913
622500000;-1,54934072494507
623000000;-1,54350209236145
623500000;-1,54950296878815
624000000;-1,55109417438507
624500000;-1,54901075363159
625000000;-1,54913222789764
625500000;-1,55292820930481
626000000;-1,55451953411102
626500000;-1,55537581443787
627000000;-1,55843698978424
627500000;-1,56002819538116
628000000;-1,56014955043793
628500000;-1,56100583076477
629000000;-1,56259715557098
629500000;-1,56565821170807
630000000;-1,56430971622467
630500000;-1,56810581684113
631000000;-1,56308269500732
631500000;-1,56687867641449
632000000;-1,56773507595062
632500000;-1,56271183490753
633000000;-1,56577301025391
633500000;-1,56736421585083
634000000;-1,56822061538696
634500000;-1,56613719463348
635000000;-1,56699347496033
635500000;-1,57005453109741
636000000;-1,58560967445374
636500000;-1,5894056558609
637000000;-1,58732223510742
637500000;-1,58891355991364
638000000;-1,58389031887054
638500000;-1,587686419487
639000000;-1,58486807346344
639500000;-1,58057975769043
640000000;-1,58437585830688
640500000;-1,58229243755341
641000000;-1,58608853816986
641500000;-1,58400511741638
642000000;-1,58412647247314
642500000;-1,58498275279999
643000000;-1,58951377868652
643500000;-1,60139417648315
644000000;-1,59931075572968
644500000;-1,6009019613266
645000000;-1,60545468330383
645500000;-1,6048629283905
646000000;-1,60794568061829
646500000;-1,60735392570496
647000000;-1,61484634876251
647500000;-1,61498951911926
648000000;-1,61733746528625
648500000;-1,61674559116364
649000000;-1,61909353733063
649500000;-1,62364625930786
650000000;-1,62305450439453
650500000;-1,62907707691193
651000000;-1,64832854270935
651500000;-1,64773666858673
652000000;-1,65008461475372
652500000;-1,64728796482086
653000000;-1,64890098571777
653500000;-1,64904403686523
654000000;-1,64771735668182
654500000;-1,65594470500946
655000000;-1,65608787536621
655500000;-1,66064059734344
656000000;-1,6571090221405
656500000;-1,66239666938782
657000000;-1,65592539310455
657500000;-1,65827333927155
658000000;-1,66135621070862
658500000;-1,65782463550568
659000000;-1,6594375371933
659500000;-1,65958070755005
660000000;-1,6523745059967
660500000;-1,66133677959442
661000000;-1,67544376850128
661500000;-1,6770566701889
662000000;-1,67352509498596
662500000;-1,67587304115295
663000000;-1,67822098731995
663500000;-1,674689412117
664000000;-1,66821813583374
664500000;-1,67350578308105
665000000;-1,67585372924805
665500000;-1,67599678039551
666000000;-1,66879057884216
666500000;-1,67113852500916
667000000;-1,66246235370636
667500000;-1,66775000095367
668000000;-1,66642332077026
668500000;-1,66950607299805
669000000;-1,66523957252502
669500000;-1,6683224439621
670000000;-1,66479086875916
670500000;-1,68771708011627
671000000;-1,68712520599365
671500000;-1,68359363079071
672000000;-1,6859415769577
672500000;-1,68241000175476
673000000;-1,68181824684143
673500000;-1,67534685134888
674000000;-1,67769479751587
674500000;-1,68004274368286
675000000;-1,6735714673996
675500000;-1,67297959327698
676000000;-1,67532753944397
676500000;-1,67179596424103
677000000;-1,66826438903809
677500000;-1,67281711101532
678000000;-1,67002046108246
678500000;-1,66942870616913
679000000;-1,66295731067657
679500000;-1,66530525684357
680000000;-1,66177368164063
680500000;-1,66706132888794
681000000;-1,67749357223511
681500000;-1,67175722122192
682000000;-1,67043042182922
682500000;-1,67277836799622
683000000;-1,67218661308289
683500000;-1,66351044178009
684000000;-1,66585838794708
684500000;-1,66159188747406
685000000;-1,65291571617126
685500000;-1,65232396125793
686000000;-1,65099716186523
686500000;-1,64746558666229
687000000;-1,64466893672943
687500000;-1,64113736152649
688000000;-1,6427503824234
688500000;-1,63921880722046
689000000;-1,63568723201752
689500000;-1,62995088100433
690000000;-1,62935900688171
690500000;-1,63758647441864
691000000;-1,6450788974762
691500000;-1,63860762119293
692000000;-1,63875079154968
692500000;-1,63815891742706
693000000;-1,63756704330444
693500000;-1,63109576702118
694000000;-1,63344371318817
694500000;-1,62991213798523
695000000;-1,62858533859253
695500000;-1,63093328475952
696000000;-1,62813663482666
696500000;-1,63048458099365
697000000;-1,62915778160095
697500000;-1,62562620639801
698000000;-1,62282967567444
698500000;-1,62223780155182
699000000;-1,62458574771881
699500000;-1,62325894832611
700000000;-1,62046229839325
700500000;-1,62868976593018
701000000;-1,64500153064728
701500000;-1,64734935760498
702000000;-1,64381778240204
702500000;-1,64396095275879
703000000;-1,64263415336609
703500000;-1,63910257816315
704000000;-1,64512526988983
704500000;-1,65041291713715
705000000;-1,64614641666412
705500000;-1,64261484146118
706000000;-1,64863741397858
706500000;-1,65098536014557
707000000;-1,64965856075287
707500000;-1,65200650691986
708000000;-1,64847493171692
708500000;-1,65082287788391
709000000;-1,65611052513123
709500000;-1,64449465274811
710000000;-1,65272212028503
710500000;-1,65433502197266
711000000;-1,65447819232941
711500000;-1,6568261384964
712000000;-1,65623426437378
712500000;-1,65784728527069
713000000;-1,66019523143768
713500000;-1,67797684669495
714000000;-1,67371034622192
714500000;-1,67091369628906
715000000;-1,67326164245605
715500000;-1,67193484306335
716000000;-1,66913819313049
716500000;-1,6707512140274
717000000;-1,66795456409454
717500000;-1,66956758499146
718000000;-1,66677093505859
718500000;-1,66544413566589
719000000;-1,66779208183289
719500000;-1,6620557308197
720000000;-1,66660845279694
720500000;-1,65793228149414
721000000;-1,66028022766113
721500000;-1,65380895137787
722000000;-1,65542185306549
722500000;-1,64968550205231
723000000;-1,64909374713898
723500000;-1,64556217193604
724000000;-1,65011489391327
724500000;-1,65025794506073
725000000;-1,64599144458771
725500000;-1,6483393907547
726000000;-1,65730178356171
726500000;-1,65891468524933
727000000;-1,66126263141632
727500000;-1,66067087650299
728000000;-1,65419948101044
728500000;-1,65434265136719
729000000;-1,65375077724457
729500000;-1,65315902233124
730000000;-1,65477192401886
730500000;-1,65124046802521
731000000;-1,64770889282227
731500000;-1,6559362411499
732000000;-1,65313959121704
732500000;-1,65769231319427
733000000;-1,65195596218109
733500000;-1,653568983078
734000000;-1,65665185451508
734500000;-1,65532505512238
735000000;-1,65546822547913
735500000;-1,65487635135651
736000000;-1,65942907333374
736500000;-1,66251194477081
737000000;-1,66118514537811
737500000;-1,6635330915451
738000000;-1,6871942281723
738500000;-1,69174695014954
739000000;-1,69292974472046
739500000;-1,68559789657593
740000000;-1,68929016590118
740500000;-1,68783783912659
741000000;-1,68638551235199
741500000;-1,68493330478668
742000000;-1,68715560436249
742500000;-1,68790817260742
743000000;-1,69233536720276
743500000;-1,69088304042816
744000000;-1,68943071365356
744500000;-1,69091820716858
745000000;-1,68946588039398
745500000;-1,69168829917908
746000000;-1,69538056850433
746500000;-1,69686794281006
747000000;-1,69321084022522
747500000;-1,69690310955048
748000000;-1,70133030414581
748500000;-1,7006129026413
749000000;-1,70430517196655
749500000;-1,70579266548157
750000000;-1,70728003978729
750500000;-1,71244215965271
751000000;-1,73450791835785
751500000;-1,73820018768311
752000000;-1,73968756198883
752500000;-1,74190998077393
753000000;-1,73751795291901
753500000;-1,74194514751434
754000000;-1,74857711791992
754500000;-1,75300431251526
755000000;-1,75449180603027
755500000;-1,75377440452576
756000000;-1,7545268535614
756500000;-1,7567492723465
757000000;-1,76338124275208
757500000;-1,75972414016724
758000000;-1,76709115505219
758500000;-1,76857852935791
759000000;-1,77300572395325
759500000;-1,77963769435883
760000000;-1,77598059177399
760500000;-1,78040778636932
761000000;-1,8046783208847
761500000;-1,8069007396698
762000000;-1,80765318870544
762500000;-1,81208038330078
763000000;-1,81650757789612
763500000;-1,81799507141113
764000000;-1,81948244571686
764500000;-1,81803011894226
765000000;-1,82539713382721
765500000;-1,82688450813293
766000000;-1,82910692691803
766500000;-1,82985949516296
767000000;-1,8342866897583
767500000;-1,83871388435364
768000000;-1,8349689245224
768500000;-1,8296662569046
769000000;-1,82950806617737
769500000;-1,82567536830902
770000000;-1,82257747650146
770500000;-1,82903373241425
771000000;-1,83769488334656
771500000;-1,83386218547821
772000000;-1,83370399475098
772500000;-1,8276664018631
773000000;-1,82530355453491
773500000;-1,81926596164703
774000000;-1,8191077709198
774500000;-1,81600999832153
775000000;-1,80923736095428
775500000;-1,80981421470642
776000000;-1,8089212179184
776500000;-1,8036185503006
777000000;-1,80052065849304
777500000;-1,79962766170502
778000000;-1,79359006881714
778500000;-1,79122710227966
779000000;-1,79033410549164
779500000;-1,78723621368408
780000000;-1,78707814216614
780500000;-1,78398025035858
781000000;-1,79852092266083
781500000;-1,79615795612335
782000000;-1,7930600643158
782500000;-1,79216706752777
783000000;-1,79200899600983
783500000;-1,78964602947235
784000000;-1,79169273376465
784500000;-1,79226958751678
785000000;-1,79137647151947
785500000;-1,78901362419128
786000000;-1,79106032848358
786500000;-1,78869736194611
787000000;-1,79368388652802
787500000;-1,78764629364014
788000000;-1,7911628484726
788500000;-1,79100465774536
789000000;-1,79672610759735
789500000;-1,79289329051971
790000000;-1,79640984535217
790500000;-1,79845654964447
791000000;-1,80123817920685
791500000;-1,80401980876923
792000000;-1,80753648281097
792500000;-1,81252288818359
793000000;-1,81015992164612
793500000;-1,81588137149811
794000000;-1,81792807579041
794500000;-1,81776988506317
795000000;-1,82349133491516
795500000;-1,83288741111755
796000000;-1,85624730587006
796500000;-1,85535418987274
797000000;-1,86059522628784
797500000;-1,86021149158478
798000000;-1,85468316078186
798500000;-1,8616486787796
799000000;-1,86420464515686
799500000;-1,86455583572388
800000000;-1,86784672737122
